//this is auto build configured file

//////////////////////material values//////////////////////////////

const int BP_value = 100;
const int WP_value = 100;
const int BKn_value = 300;
const int WKn_value = 300;
const int BB_value = 300;
const int WB_value = 300;
const int BR_value = 500;
const int WR_value = 500;
const int BQ_value = 900;
const int WQ_value = 900;

//////////////followed constants relevant only for Middle Game purposes/////////////////

const int pawn_bonuses_MG[8][8] = {   
{   0,   0,   0,   0,   0,   0,   0,   0},
{  50,  50,  50,  50,  50,  50,  50,  50},
{  10,  10,  10,  10,  10,  10,  10,  10},
{   5,   5,  10,  25,  25,  10,   5,   5},
{   0,   0,   0,  20,  20,   0,   0,   0},
{   5,  -5,  10,   0,   0, -10,  -5,   5},
{   5,  10,  10, -20, -20,  10,  10,   5},
{   0,   0,   0,   0,   0,   0,   0,   0}  };

const int knight_bonuses_MG[8][8] = {   
{ -50, -40, -30, -30, -30, -30, -40, -50},
{ -40, -20,   0,   0,   0,   0, -20, -40},
{ -30,   0,  10,  15,  15,  10,   0, -30},
{ -30,   5,  15,  20,  20,  15,   5, -30},
{ -30,   0,  15,  20,  20,  15,   0, -30},
{ -30,   5,  10,  15,  15,  10,   5, -30},
{ -40, -20,   0,   5,   5,   0, -20, -40},
{ -50, -40, -30, -30, -30, -30, -40, -50}  };

const int bishop_bonuses_MG[8][8] = {   
{ -20, -10, -10, -10, -10, -10, -10, -20},
{ -10,   0,   0,   0,   0,   0,   0, -10},
{ -10,   0,   5,  10,  10,   5,   0, -10},
{ -10,   5,   5,  10,  10,   5,   5, -10},
{ -10,   0,  10,  10,  10,  10,   0, -10},
{ -10,  10,  10,  10,  10,  10,  10, -10},
{ -10,   5,   0,   0,   0,   0,   5, -10},
{ -20, -10, -10, -10, -10, -10, -10, -20}  };

const int rook_bonuses_MG[8][8] = {   
{   0,   0,   0,   0,   0,   0,   0,   0},
{   5,  10,  10,  10,  10,  10,  10,   5},
{  -5,   0,   0,   0,   0,   0,   0,  -5},
{  -5,   0,   0,   0,   0,   0,   0,  -5},
{  -5,   0,   0,   0,   0,   0,   0,  -5},
{  -5,   0,   0,   0,   0,   0,   0,  -5},
{  -5,   0,   0,   0,   0,   0,   0,  -5},
{   0,   0,   0,   5,   5,   0,   0,   0}  };

const int queen_bonuses_MG[8][8] = {   
{ -20, -10, -10,  -5,  -5, -10, -10, -20},
{ -10,   0,   0,   0,   0,   0,   0, -10},
{ -10,   0,   5,   5,   5,   5,   0, -10},
{  -5,   0,   5,   5,   5,   5,   0,  -5},
{   0,   0,   5,   5,   5,   5,   0,   0},
{ -10,   5,   5,   5,   5,   5,   0, -10},
{ -10,   0,   5,   0,   0,   0,   0, -10},
{ -20, -10, -10,  -5,  -5, -10, -10, -20}  };

const int king_bonuses_MG[8][8] = {   
{ -30, -40, -40, -50, -50, -40, -40, -30},
{ -30, -40, -40, -50, -50, -40, -40, -30},
{ -30, -40, -40, -50, -50, -40, -40, -30},
{ -30, -40, -40, -50, -50, -40, -40, -30},
{ -20, -30, -30, -40, -40, -30, -30, -20},
{ -10, -20, -20, -20, -20, -20, -20, -10},
{  20,  20,   0,   0,   0,   0,  20,  20},
{  20,  30,  10,   0,   0,  10,  30,  20}  };


//////////////followed constants relevant only for End Game purposes/////////////////

const int pawn_bonuses_EG[8][8] = {   
{   0,   0,   0,   0,   0,   0,   0,   0},
{ 150, 150, 150, 150, 150, 150, 150, 150},
{  75,  75,  75,  75,  75,  75,  75,  75},
{  30,  30,  30,  30,  30,  30,  30,  30},
{   0,   0,   0,  20,  20,   0,   0,   0},
{   0,   0,   0,   0,   0,   0,   0,   0},
{   0,   0,   0,   0,   0,   0,   0,   0},
{   0,   0,   0,   0,   0,   0,   0,   0}  };

const int knight_bonuses_EG[8][8] = {   
{ -50, -40, -30, -30, -30, -30, -40, -50},
{ -40, -20,   0,   0,   0,   0, -20, -40},
{ -30,   0,  10,  15,  15,  10,   0, -30},
{ -30,   5,  15,  20,  20,  15,   5, -30},
{ -30,   0,  15,  20,  20,  15,   0, -30},
{ -30,   5,  10,  15,  15,  10,   5, -30},
{ -40, -20,   0,   5,   5,   0, -20, -40},
{ -50, -40, -30, -30, -30, -30, -40, -50}  };

const int bishop_bonuses_EG[8][8] = {   
{ -20, -10, -10, -10, -10, -10, -10, -20},
{ -10,   0,   0,   0,   0,   0,   0, -10},
{ -10,   0,   5,  10,  10,   5,   0, -10},
{ -10,   5,   5,  10,  10,   5,   5, -10},
{ -10,   0,  10,  10,  10,  10,   0, -10},
{ -10,  10,  10,  10,  10,  10,  10, -10},
{ -10,   5,   0,   0,   0,   0,   5, -10},
{ -20, -10, -10, -10, -10, -10, -10, -20}  };

const int rook_bonuses_EG[8][8] = {   
{   0,   0,   0,   0,   0,   0,   0,   0},
{   5,  10,  10,  10,  10,  10,  10,   5},
{  -5,   0,   0,   0,   0,   0,   0,  -5},
{  -5,   0,   0,   0,   0,   0,   0,  -5},
{  -5,   0,   0,   0,   0,   0,   0,  -5},
{  -5,   0,   0,   0,   0,   0,   0,  -5},
{  -5,   0,   0,   0,   0,   0,   0,  -5},
{   0,   0,   0,   5,   5,   0,   0,   0}  };

const int queen_bonuses_EG[8][8] = {   
{ -20, -10, -10,  -5,  -5, -10, -10, -20},
{ -10,   0,   0,   0,   0,   0,   0, -10},
{ -10,   0,   5,   5,   5,   5,   0, -10},
{  -5,   0,   5,   5,   5,   5,   0,  -5},
{   0,   0,   5,   5,   5,   5,   0,   0},
{ -10,   5,   5,   5,   5,   5,   0, -10},
{ -10,   0,   5,   0,   0,   0,   0, -10},
{ -20, -10, -10,  -5,  -5, -10, -10, -20}  };

const int king_bonuses_EG[8][8] = {   
{ -50, -40, -30, -20, -20, -30, -40, -50},
{ -30, -20, -10,   0,   0, -10, -20, -30},
{ -30, -10,  20,  30,  30,  20, -10, -30},
{ -30, -10,  30,  40,  40,  30, -10, -30},
{ -30, -10,  30,  40,  40,  30, -10, -30},
{ -30, -10,  20,  30,  30,  20, -10, -30},
{ -30, -30,   0,   0,   0,   0, -30, -30},
{ -50, -30, -30, -30, -30, -30, -30, -50}  };


const int double_pawn_penalty = -11;
const int pawn_islands_penalty[5] = {-1,-12,-4,-9,-10};
const int passed_pawn_bonus = 1;
const int unstopable_pawn_bonus = 62;

const int close_to_enemy_king_bonus = 10;

const int knight_outpost_bonus = 12;

const int rook_on_semi_opened_file = 7;
const int rook_on_opened_file = 23;

const int bishop_pair_bonus = 19;
